<svg width="82" height="82" viewBox="0 0 82 82" fill="none" xmlns="http://www.w3.org/2000/svg">
<g clip-path="url(#clip0)">
<circle cx="41" cy="40" r="37" fill="#CAE4FF"/>
<g clip-path="url(#clip1)">
<path d="M78.8417 44.8198C78.2004 44.8198 77.6819 44.3042 77.6819 43.6662C77.6819 42.3585 78.5745 41.2262 79.4404 40.1365C79.9855 39.4507 80.7338 38.5045 80.6697 38.0633C80.6002 37.5848 79.5954 36.8778 78.8631 36.3568C77.7407 35.5648 76.5862 34.7461 76.2228 33.5235C75.854 32.2795 76.3885 30.9505 76.9069 29.6694C77.2383 28.8508 77.6873 27.7291 77.5002 27.3144C77.3024 26.8839 76.1426 26.4905 75.2981 26.1981C73.994 25.7516 72.6417 25.2891 71.9416 24.2099C71.2414 23.1255 71.375 21.7061 71.5086 20.3346C71.5941 19.4522 71.7117 18.2455 71.4017 17.8946C71.0971 17.5438 69.8731 17.4853 68.9805 17.4428C67.5962 17.379 66.1638 17.3099 65.1857 16.47C64.2076 15.63 63.9403 14.2319 63.6784 12.8764C63.5127 12.0046 63.2829 10.8085 62.8874 10.5533C62.4972 10.3035 61.316 10.5905 60.4501 10.7979C59.1032 11.1221 57.7082 11.457 56.5217 10.9201C55.3512 10.3885 54.6991 9.12866 54.0737 7.906C53.6622 7.11392 53.101 6.02416 52.6413 5.89126C52.2084 5.76368 51.1555 6.36969 50.3912 6.81091C49.1832 7.5073 47.9379 8.22495 46.6444 8.03889C45.3777 7.85815 44.3996 6.83749 43.4536 5.84873C42.8282 5.20019 41.9784 4.30711 41.4867 4.30711C40.9949 4.30711 40.1451 5.20019 39.5198 5.84873C38.5737 6.83749 37.5956 7.85815 36.3289 8.03889C35.0301 8.21964 33.7847 7.50199 32.5822 6.81091C31.8178 6.36969 30.7703 5.76368 30.332 5.89126C29.8723 6.02416 29.3111 7.11392 28.8996 7.906C28.2689 9.12334 27.6168 10.3832 26.4516 10.9201C25.2704 11.457 23.8754 11.1221 22.5232 10.7979C21.6573 10.5905 20.4761 10.3035 20.0859 10.5533C19.6904 10.8085 19.4606 12.0046 19.2895 12.8764C19.0276 14.2266 18.7604 15.6247 17.7876 16.47C16.8095 17.3152 15.3771 17.379 13.9928 17.4428C13.1002 17.4853 11.8816 17.5385 11.5716 17.8946C11.2669 18.2455 11.3845 19.4522 11.47 20.3346C11.6037 21.7061 11.7373 23.1255 11.0371 24.2153C10.3423 25.2944 8.99004 25.7569 7.68055 26.2034C6.83606 26.4958 5.67623 26.8892 5.47313 27.3198C5.28072 27.7344 5.73503 28.8561 6.06641 29.6747C6.58486 30.9559 7.11934 32.2848 6.75055 33.5288C6.39244 34.7514 5.23261 35.5701 4.1102 36.3622C3.37795 36.8831 2.37312 37.5901 2.30364 38.0686C2.2395 38.5098 2.98778 39.4507 3.53295 40.1418C4.39882 41.2315 5.29141 42.3638 5.29141 43.6716C5.29141 44.3095 4.77296 44.8251 4.13158 44.8251C3.4902 44.8251 2.97175 44.3095 2.97175 43.6716C2.97175 43.1612 2.27157 42.2788 1.71036 41.5718C0.775017 40.3916 -0.197743 39.1637 0.00536061 37.7443C0.213809 36.2877 1.5714 35.3309 2.7633 34.4856C3.48485 33.9753 4.38813 33.3374 4.52175 32.8802C4.66072 32.4018 4.24382 31.3652 3.90709 30.5359C3.34054 29.1325 2.75261 27.6759 3.35657 26.3629C3.96589 25.0339 5.53727 24.497 6.91624 24.0239C7.76072 23.7368 8.81365 23.3753 9.07555 22.9713C9.34279 22.5567 9.2359 21.451 9.15038 20.5632C9.01141 19.1226 8.85641 17.4906 9.81314 16.3902C10.7699 15.2898 12.4214 15.2154 13.8752 15.1463C14.7732 15.1038 15.8849 15.0559 16.259 14.7316C16.6278 14.4127 16.8363 13.3229 17.0019 12.4511C17.2745 11.0264 17.5845 9.4104 18.8192 8.61833C20.0432 7.83157 21.5771 8.20369 23.0577 8.55985C23.9342 8.77249 25.0192 9.03297 25.4735 8.82565C25.9118 8.62365 26.4196 7.64552 26.8258 6.85876C27.4939 5.56167 28.2528 4.09448 29.6692 3.67983C31.0589 3.27582 32.4218 4.05726 33.7313 4.81744C34.517 5.2693 35.4897 5.83278 35.9922 5.75836C36.4572 5.69457 37.2161 4.89718 37.8254 4.26459C38.8677 3.2014 40.0168 2 41.5027 2C42.9886 2 44.1324 3.2014 45.1479 4.25927C45.7572 4.89718 46.5162 5.68925 46.9865 5.75836C47.4889 5.82747 48.4617 5.2693 49.242 4.81744C50.5568 4.06258 51.9144 3.27582 53.3094 3.67983C54.7258 4.09448 55.4848 5.56167 56.1529 6.85876C56.5591 7.64552 57.0669 8.62896 57.5051 8.82565C57.9541 9.03297 59.0445 8.76718 59.921 8.55985C61.4015 8.20369 62.9355 7.83157 64.1595 8.61833C65.3941 9.4104 65.7041 11.0211 65.9767 12.4511C66.1424 13.3229 66.3562 14.4127 66.725 14.7316C67.0938 15.0506 68.2109 15.1038 69.1034 15.1463C70.5572 15.2154 72.2088 15.2898 73.1655 16.3902C74.1222 17.4853 73.9672 19.1226 73.8283 20.5632C73.7428 21.451 73.6359 22.5567 73.9031 22.9713C74.165 23.3753 75.2179 23.7368 76.0624 24.0239C77.4467 24.497 79.0128 25.0339 79.6221 26.3629C80.2261 27.6759 79.6435 29.1325 79.0769 30.5359C78.7402 31.3705 78.3233 32.4071 78.4623 32.8802C78.5959 33.3374 79.4992 33.97 80.2207 34.4856C81.418 35.3309 82.7702 36.293 82.9786 37.7443C83.1817 39.1637 82.2143 40.3863 81.2736 41.5718C80.7124 42.2788 80.0123 43.1665 80.0123 43.6716C80.0069 44.3042 79.4831 44.8198 78.8417 44.8198Z" fill="#22297A"/>
<path d="M24.1694 72.4148C23.8968 72.4148 23.6242 72.3191 23.405 72.1277C13.5117 63.4894 2.9931 50.577 2.9931 43.6663C2.9931 43.0283 3.51155 42.5127 4.15293 42.5127C4.79431 42.5127 5.31276 43.0283 5.31276 43.6663C5.31276 48.9556 14.1157 60.9483 24.9337 70.3947C25.4147 70.8147 25.4628 71.543 25.0406 72.0214C24.8161 72.2819 24.4954 72.4148 24.1694 72.4148Z" fill="#22297A"/>
<path d="M22.6033 55.8929C22.0528 55.8929 21.5664 55.5048 21.4649 54.9466C19.9737 46.8239 16.1147 46.3401 6.78795 45.1653C5.90071 45.0537 4.9707 44.9367 4.00329 44.8092C3.36725 44.7241 2.92363 44.1447 3.00915 43.5121C3.09466 42.8795 3.67725 42.4383 4.31329 42.5233C5.2807 42.6509 6.20536 42.7678 7.08191 42.8795C16.6706 44.0862 21.9513 44.7507 23.7471 54.532C23.8647 55.1593 23.4425 55.76 22.8118 55.8769C22.7423 55.8875 22.6728 55.8929 22.6033 55.8929Z" fill="#22297A"/>
<path d="M24.1694 72.4148C23.5868 72.4148 23.0844 71.9789 23.0149 71.3835C21.5023 57.5195 18.6 55.3081 7.85692 53.8781C7.22089 53.7931 6.77727 53.2136 6.86278 52.581C6.9483 51.9484 7.53089 51.5072 8.16692 51.5923C13.8271 52.3471 17.8838 53.4156 20.6204 56.4032C23.1485 59.1622 24.4687 63.2926 25.3239 71.1389C25.3933 71.7715 24.9337 72.3403 24.2976 72.4095C24.2549 72.4095 24.2121 72.4148 24.1694 72.4148Z" fill="#22297A"/>
<path d="M21.0159 46.3348C20.5135 46.3348 20.0485 46.0053 19.9042 45.5002C18.3007 39.9504 13.5492 36.2984 5.38759 34.3208C4.76224 34.172 4.38276 33.5447 4.53241 32.9281C4.68207 32.3061 5.31276 31.9287 5.93276 32.0775C14.848 34.2358 20.2997 38.5364 22.1276 44.8623C22.304 45.4737 21.9512 46.1116 21.3312 46.2923C21.235 46.3189 21.1228 46.3348 21.0159 46.3348Z" fill="#22297A"/>
<path d="M24.1694 72.4148C23.5655 72.4148 23.0524 71.947 23.0149 71.3356C21.7643 52.6395 19.0972 30.4243 9.47646 24.5661C8.93129 24.2312 8.76026 23.5242 9.09164 22.982C9.42836 22.4397 10.1392 22.2696 10.6844 22.5992C19.0117 27.6706 23.3891 42.199 25.3293 71.1815C25.372 71.8194 24.8856 72.3669 24.2496 72.4094C24.2229 72.4148 24.1962 72.4148 24.1694 72.4148Z" fill="#22297A"/>
<path d="M29.06 75.918C28.456 75.918 27.9483 75.4555 27.9055 74.8442C27.7451 72.6062 27.6008 70.2831 27.4512 67.8218C26.4089 50.8428 25.1155 29.7119 16.0827 16.2308C15.7246 15.6992 15.8689 14.9815 16.4034 14.6307C16.9379 14.2798 17.6541 14.4233 18.0122 14.9496C27.3924 28.9518 28.7072 50.4281 29.7655 67.6836C29.9152 70.1396 30.0595 72.4573 30.2198 74.6847C30.2626 75.3226 29.7869 75.8755 29.1455 75.918C29.1134 75.918 29.0867 75.918 29.06 75.918Z" fill="#22297A"/>
<path d="M33.9504 79.4212C33.3304 79.4212 32.8173 78.9374 32.7906 78.3154C32.7158 76.5452 32.6463 74.5943 32.5715 72.5317C32.021 57.1846 31.1925 33.9912 24.8642 10.1599C24.7039 9.54329 25.0727 8.9107 25.6873 8.75122C26.3073 8.59174 26.9434 8.95854 27.1037 9.56987C33.4961 33.651 34.3299 56.9986 34.8858 72.4467C34.9606 74.5039 35.0301 76.4495 35.1049 78.2144C35.1316 78.8523 34.6346 79.3893 33.9985 79.4158C33.9825 79.4212 33.9665 79.4212 33.9504 79.4212Z" fill="#22297A"/>
<path d="M38.841 81C38.1996 81 37.6811 80.4844 37.6811 79.8465C37.6811 67.8963 36.9596 48.137 35.0301 6.94914C34.998 6.31123 35.4951 5.77432 36.1365 5.74243C36.7779 5.71053 37.3177 6.20491 37.3498 6.84282C39.2846 48.0678 40.0061 67.8591 40.0061 79.8465C40.0008 80.4844 39.4823 81 38.841 81Z" fill="#22297A"/>
<path d="M58.8307 72.4148C58.51 72.4148 58.1893 72.2819 57.9595 72.0214C57.5372 71.543 57.5853 70.8147 58.0664 70.3947C64.0846 65.1426 70.4931 57.9661 74.0154 52.5439C76.4205 48.844 77.6926 45.7714 77.6926 43.6663C77.6926 43.0283 78.2111 42.5127 78.8524 42.5127C79.4938 42.5127 80.0123 43.0283 80.0123 43.6663C80.0123 46.2551 78.6493 49.6626 75.9662 53.7931C72.2836 59.4652 65.8591 66.663 59.6003 72.1277C59.3758 72.3191 59.1033 72.4148 58.8307 72.4148Z" fill="#22297A"/>
<path d="M60.402 55.8929C60.3326 55.8929 60.2631 55.8876 60.1936 55.8716C59.5629 55.76 59.146 55.154 59.2582 54.5267C61.0541 44.7454 66.3348 44.0809 75.9234 42.8742C76.8053 42.7625 77.7247 42.6456 78.6921 42.518C79.3281 42.4329 79.9107 42.8742 79.9962 43.5068C80.0817 44.1394 79.6328 44.7188 79.0021 44.8038C78.0293 44.9314 77.0993 45.0484 76.2174 45.16C66.896 46.3348 63.0317 46.8186 61.5405 54.9413C61.4389 55.5048 60.9526 55.8929 60.402 55.8929Z" fill="#22297A"/>
<path d="M58.8307 72.4148C58.7879 72.4148 58.7452 72.4148 58.7024 72.4095C58.0664 72.3404 57.6067 71.7716 57.6762 71.139C58.5314 63.298 59.8515 59.1675 62.3797 56.4032C65.1162 53.4157 69.1729 52.3472 74.8331 51.5923C75.4692 51.5072 76.0517 51.9538 76.1373 52.5811C76.2228 53.2137 75.7792 53.7931 75.1431 53.8781C64.4053 55.3081 61.4978 57.5196 59.9852 71.3835C59.921 71.9736 59.4186 72.4148 58.8307 72.4148Z" fill="#22297A"/>
<path d="M61.9841 46.3348C61.8772 46.3348 61.7703 46.3189 61.6634 46.287C61.0488 46.1116 60.6907 45.4737 60.8724 44.857C62.7057 38.5311 68.1521 34.2305 77.0673 32.0722C77.6873 31.9234 78.318 32.3008 78.4676 32.9228C78.6173 33.5447 78.2378 34.1667 77.6124 34.3155C69.4509 36.2931 64.7047 39.9504 63.0959 45.4949C62.9515 46.0053 62.4865 46.3348 61.9841 46.3348Z" fill="#22297A"/>
<path d="M58.8307 72.4148C58.804 72.4148 58.7772 72.4148 58.7505 72.4148C58.1091 72.3723 57.6281 71.8247 57.6709 71.1868C59.6057 42.2044 63.9885 27.676 72.3104 22.6046C72.8555 22.2697 73.5718 22.4451 73.9031 22.9873C74.2399 23.5295 74.0688 24.2419 73.5183 24.5715C63.8976 30.4296 61.2305 52.6449 59.9798 71.341C59.9478 71.947 59.44 72.4148 58.8307 72.4148Z" fill="#22297A"/>
<path d="M53.9456 75.918C53.9188 75.918 53.8921 75.918 53.86 75.9127C53.2187 75.8701 52.7376 75.312 52.7857 74.6794C52.9461 72.452 53.0904 70.1343 53.24 67.673C54.2983 50.4175 55.6131 28.9464 64.9933 14.9496C65.3514 14.418 66.0676 14.2745 66.6021 14.6307C67.1366 14.9815 67.2809 15.6992 66.9228 16.2307C57.89 29.7119 56.5966 50.8374 55.5544 67.8165C55.4047 70.2778 55.2604 72.6062 55.1 74.8442C55.0573 75.4555 54.5495 75.918 53.9456 75.918Z" fill="#22297A"/>
<path d="M49.055 79.4212C49.039 79.4212 49.0229 79.4212 49.0069 79.4212C48.3655 79.3946 47.8684 78.8524 47.9005 78.2198C47.9753 76.4549 48.0448 74.5092 48.1197 72.4467C48.6755 56.9986 49.5093 33.651 55.9017 9.57519C56.0674 8.95854 56.7035 8.59174 57.3181 8.75654C57.9381 8.92133 58.3069 9.54861 58.1412 10.1653C51.8183 33.9966 50.9845 57.1846 50.434 72.5317C50.3591 74.5943 50.2897 76.5452 50.2148 78.3208C50.1828 78.9374 49.6697 79.4212 49.055 79.4212Z" fill="#22297A"/>
<path d="M44.1645 81C43.5231 81 43.0046 80.4844 43.0046 79.8465C43.0046 67.859 43.7262 48.0732 45.661 6.84282C45.6931 6.20491 46.2329 5.71585 46.8743 5.74243C47.5157 5.77432 48.0074 6.31123 47.9807 6.94914C46.0405 48.1423 45.3243 67.9016 45.3243 79.8465C45.3243 80.4844 44.8059 81 44.1645 81Z" fill="#22297A"/>
</g>
</g>
<defs>
<clipPath id="clip0">
<rect width="82" height="82" fill="white"/>
</clipPath>
<clipPath id="clip1">
<rect width="83" height="79" fill="white" transform="translate(0 2)"/>
</clipPath>
</defs>
</svg>
