<svg width="65" height="40" viewBox="0 0 65 40" fill="none" xmlns="http://www.w3.org/2000/svg">
<path fill-rule="evenodd" clip-rule="evenodd" d="M62.0759 31.1831C63.9616 29.2665 65 26.7188 65 24.0091L65 15.9909C65 13.2812 63.9616 10.7335 62.0759 8.81704L56.5785 3.2292C54.5298 1.14677 51.8065 -5.76706e-07 48.9103 -7.03305e-07L9.87171 -2.40973e-06C8.18777 -2.48334e-06 6.54379 0.326233 4.98568 0.969427C3.42609 1.61262 2.0233 2.54388 0.815636 3.73794C0.289985 4.25886 0.000594876 4.95696 0.000594843 5.70342C0.000594811 6.45004 0.29013 7.14813 0.816383 7.66966C3.25506 10.0795 6.47106 11.4068 9.87171 11.4068L10.9378 11.4068L10.9378 28.5932L9.87171 28.5932C8.18762 28.5932 6.54363 28.9194 4.98583 29.5624C3.42623 30.2056 2.02345 31.1369 0.816084 32.3305C0.289687 32.8514 -0.000154054 33.5498 -1.49916e-06 34.2967C-1.5318e-06 35.0435 0.289839 35.7418 0.816534 36.2628C3.25536 38.6729 6.47121 40 9.87186 40L48.9104 40C51.8066 40 54.5301 38.8532 56.5788 36.7708L62.0759 31.1831ZM6.59481 9.72046L6.59481 1.68973C6.20353 1.80502 5.81673 1.93962 5.43592 2.09688C4.42951 2.51179 3.49671 3.06144 2.64696 3.73232C3.13939 4.25977 3.42713 4.96563 3.42713 5.71118C3.42713 6.45277 3.14254 7.15559 2.65534 7.68167C3.83831 8.61505 5.17213 9.30388 6.59481 9.72046ZM1.65087 4.60958C1.35879 4.89901 1.19764 5.28775 1.19764 5.70342C1.19764 6.11924 1.35879 6.50798 1.65147 6.79802C1.68259 6.8289 1.71536 6.85764 1.74693 6.88806C2.05128 6.58084 2.23009 6.15802 2.23009 5.71118C2.23009 5.26083 2.04814 4.83528 1.73856 4.527C1.70968 4.55498 1.67945 4.58129 1.65087 4.60958ZM9.64158 10.1845C9.71834 10.186 9.79465 10.1901 9.87171 10.1901L10.938 10.1901L10.938 9.96198C10.938 9.62601 11.206 9.35361 11.5365 9.35361C11.867 9.35361 12.135 9.62601 12.135 9.96198L12.135 10.1901L13.4362 10.1901C13.1559 9.3962 12.4135 8.8365 11.5365 8.8365C10.6788 8.8365 9.92797 9.39802 9.64158 10.1845ZM42.7799 11.407L42.7799 28.5933L47.7819 28.5935C48.4084 28.5935 48.9972 28.3456 49.4399 27.8955L53.0909 24.1846C53.5338 23.7346 53.7776 23.1361 53.7776 22.4992L53.7776 17.5014C53.7776 16.8645 53.5338 16.2659 53.0911 15.816L49.4401 12.1049C48.9973 11.6548 48.4085 11.407 47.782 11.407L42.7799 11.407ZM35.7473 30.0382L41.5829 30.0382L41.5829 9.96213L35.7473 9.96213L35.7473 30.0382ZM26.1709 28.5933L34.5502 28.5933L34.5502 11.407L26.1709 11.407L26.1709 28.5933ZM19.1383 30.0382L24.9739 30.0382L24.9739 9.96213L19.1383 9.96213L19.1383 30.0382ZM17.9413 11.4068L12.1349 11.4068L12.1349 28.5932L17.9413 28.5932L17.9413 11.4068ZM12.1349 29.81L12.1349 30.0382C12.1349 30.3741 11.8669 30.6464 11.5363 30.6464C11.2058 30.6464 10.9378 30.374 10.9378 30.038L10.9378 29.8099L9.87171 29.8099C9.79465 29.8099 9.71819 29.814 9.64143 29.8155C9.92768 30.602 10.6787 31.1635 11.5363 31.1635C12.4135 31.1635 13.1558 30.604 13.4361 29.81L12.1349 29.81ZM6.59481 38.3136L6.59481 30.2829C6.20352 30.3982 5.81673 30.5328 5.43607 30.6902C4.43295 31.1037 3.50315 31.6511 2.65549 32.3189C3.14253 32.8452 3.42713 33.5478 3.42713 34.2893C3.42713 35.0348 3.1394 35.7407 2.64681 36.2681C3.83188 37.2049 5.16883 37.896 6.59481 38.3136ZM1.65087 33.2027C1.35819 33.4923 1.19689 33.8811 1.19689 34.2967C1.19689 34.7124 1.35819 35.101 1.65102 35.3907C1.6796 35.419 1.70968 35.4452 1.73855 35.4732C2.04799 35.1649 2.23009 34.7395 2.23009 34.2891C2.23009 33.8423 2.05128 33.4195 1.74678 33.1122C1.71521 33.1428 1.68229 33.1717 1.65087 33.2027Z" fill="#DA251C"/>
<path d="M41.5829 30.0382L35.7473 30.0382L35.7473 9.96213L41.5829 9.96213L41.5829 30.0382Z" fill="#DA251C"/>
<path d="M24.9739 30.0382L19.1383 30.0382L19.1383 9.96213L24.9739 9.96213L24.9739 30.0382Z" fill="#DA251C"/>
<path d="M34.5502 28.5933L26.1709 28.5933L26.1709 11.407L34.5502 11.407L34.5502 28.5933Z" fill="#DA251C"/>
<path d="M42.7799 28.5933L42.7799 11.407L47.782 11.407C48.4085 11.407 48.9973 11.6548 49.4401 12.1049L53.0911 15.816C53.5338 16.2659 53.7776 16.8645 53.7776 17.5014L53.7776 22.4992C53.7776 23.1361 53.5338 23.7346 53.0909 24.1846L49.4399 27.8955C48.9972 28.3456 48.4084 28.5935 47.7819 28.5935L42.7799 28.5933Z" fill="#DA251C"/>
<path d="M12.1349 11.4068L17.9413 11.4068L17.9413 28.5932L12.1349 28.5932L12.1349 11.4068Z" fill="#DA251C"/>
<path d="M9.87171 10.1901C9.79465 10.1901 9.71834 10.186 9.64158 10.1845C9.92797 9.39802 10.6788 8.8365 11.5365 8.8365C12.4135 8.8365 13.1559 9.3962 13.4362 10.1901L12.135 10.1901L12.135 9.96198C12.135 9.62601 11.867 9.35361 11.5365 9.35361C11.206 9.35361 10.938 9.62601 10.938 9.96198L10.938 10.1901L9.87171 10.1901Z" fill="#DA251C"/>
<path d="M12.1349 30.0382L12.1349 29.81L13.4361 29.81C13.1558 30.604 12.4135 31.1635 11.5363 31.1635C10.6787 31.1635 9.92768 30.602 9.64143 29.8155C9.71819 29.814 9.79465 29.8099 9.87171 29.8099L10.9378 29.8099L10.9378 30.038C10.9378 30.374 11.2058 30.6464 11.5363 30.6464C11.8669 30.6464 12.1349 30.3741 12.1349 30.0382Z" fill="#DA251C"/>
<path d="M1.19689 34.2967C1.19689 33.8811 1.35819 33.4923 1.65087 33.2027C1.68229 33.1717 1.71521 33.1428 1.74678 33.1122C2.05128 33.4195 2.23009 33.8423 2.23009 34.2891C2.23009 34.7395 2.04799 35.1649 1.73855 35.4732C1.70968 35.4452 1.6796 35.419 1.65102 35.3907C1.35819 35.101 1.19689 34.7124 1.19689 34.2967Z" fill="#DA251C"/>
<path d="M1.19764 5.70342C1.19764 5.28775 1.35879 4.89901 1.65087 4.60958C1.67945 4.58129 1.70968 4.55498 1.73856 4.527C2.04814 4.83528 2.23009 5.26083 2.23009 5.71118C2.23009 6.15802 2.05128 6.58084 1.74693 6.88806C1.71536 6.85764 1.68259 6.8289 1.65147 6.79802C1.35879 6.50798 1.19764 6.11924 1.19764 5.70342Z" fill="#DA251C"/>
<path d="M6.59481 30.2829L6.59481 38.3136C5.16883 37.896 3.83188 37.2049 2.64681 36.2681C3.1394 35.7407 3.42713 35.0348 3.42713 34.2893C3.42713 33.5478 3.14253 32.8452 2.65549 32.3189C3.50315 31.6511 4.43295 31.1037 5.43607 30.6902C5.81673 30.5328 6.20352 30.3982 6.59481 30.2829Z" fill="#DA251C"/>
<path d="M6.59481 1.68973L6.59481 9.72046C5.17213 9.30388 3.83831 8.61505 2.65534 7.68167C3.14254 7.15559 3.42713 6.45277 3.42713 5.71118C3.42713 4.96563 3.13939 4.25977 2.64696 3.73232C3.49671 3.06144 4.42951 2.51179 5.43592 2.09688C5.81673 1.93962 6.20353 1.80502 6.59481 1.68973Z" fill="#DA251C"/>
</svg>
