<svg width="23" height="22" viewBox="0 0 23 22" fill="none" xmlns="http://www.w3.org/2000/svg">
<path d="M0.852181 2.65446H3.24971L6.66504 15.0115C6.76682 15.3734 7.09854 15.6259 7.47551 15.6259H17.9778C18.3096 15.6259 18.6111 15.4299 18.7469 15.1245L22.5693 6.33743C22.6786 6.07732 22.6522 5.77952 22.5014 5.54203C22.3469 5.30454 22.0868 5.16507 21.8041 5.16507H10.201C9.73733 5.15376 9.35658 5.52318 9.34527 5.98308C9.33397 6.44675 9.70339 6.82749 10.1633 6.8388C10.1746 6.8388 10.1859 6.8388 10.1972 6.8388H20.5186L17.4237 13.9522H8.10881L4.69348 1.59518C4.5917 1.23329 4.25998 0.980722 3.88302 0.980722H0.855954C0.392284 0.969413 0.0115619 1.33885 0.000252897 1.79875C-0.0110561 2.26242 0.358366 2.64315 0.818266 2.65446C0.825806 2.65446 0.840872 2.65446 0.852181 2.65446Z" fill="#F3F8FD"/>
<path d="M6.68034 21.5066C7.72831 21.5066 8.5765 20.6585 8.5765 19.6105C8.5765 18.5625 7.72831 17.7144 6.68034 17.7144C5.63237 17.7144 4.78418 18.5625 4.78418 19.6105C4.78418 20.6585 5.63237 21.5066 6.68034 21.5066Z" fill="#F3F8FD"/>
<path d="M18.5319 21.5068H18.6714C19.7533 21.4691 20.5977 20.5606 20.56 19.4787C20.5223 18.3968 19.6138 17.5524 18.5319 17.5901C17.45 17.6278 16.6056 18.5363 16.6433 19.6182C16.681 20.6473 17.5066 21.4729 18.5319 21.5068Z" fill="#F3F8FD"/>
</svg>
