<svg width="62" height="2" viewBox="0 0 62 2" fill="none" xmlns="http://www.w3.org/2000/svg">
<path d="M4.90751 0.664109C3.7444 1.31132 2.11967 1.31133 0.956422 0.664109C0.69774 0.520165 0.325209 0.553863 0.124489 0.739374C-0.07623 0.924992 -0.0292375 1.19215 0.229444 1.33599C1.82067 2.22134 4.04341 2.22134 5.63449 1.33588C6.79774 0.688666 8.42247 0.68877 9.58543 1.33599C11.1767 2.22134 13.3994 2.22134 14.9905 1.33588C16.1536 0.688666 17.7783 0.68877 18.9414 1.33599C20.5326 2.22134 22.7552 2.22134 24.3465 1.33588C25.5096 0.688665 27.1343 0.688663 28.2974 1.33599C29.8886 2.22134 32.1114 2.22134 33.7024 1.33588C34.8655 0.688665 36.4903 0.688662 37.6535 1.33598C39.2447 2.22134 41.4673 2.22134 43.0584 1.33588C44.2217 0.688665 45.8464 0.688768 47.0095 1.33598C48.6007 2.22134 50.8235 2.22134 52.4145 1.33588C53.5776 0.688664 55.2024 0.688768 56.3655 1.33598C57.9566 2.22134 60.1793 2.22134 61.7705 1.33598C61.9211 1.25221 62 1.12666 62 0.999725C62 0.908724 61.9594 0.816871 61.8756 0.739371C61.6749 0.55386 61.3024 0.520056 61.0437 0.664106C59.8804 1.31132 58.2557 1.31122 57.0926 0.663999C55.5014 -0.221352 53.2786 -0.221351 51.6876 0.664106C50.5243 1.31132 48.8996 1.31122 47.7365 0.664C46.1452 -0.221351 43.9227 -0.221351 42.3314 0.664107C41.1683 1.31132 39.5436 1.31122 38.3805 0.664C36.7893 -0.221351 34.5665 -0.22135 32.9755 0.664107C31.8123 1.31132 30.1876 1.31122 29.0245 0.664C27.4333 -0.221351 25.2106 -0.22135 23.6195 0.664108C22.4562 1.31132 20.8315 1.31122 19.6685 0.664001C18.0773 -0.22135 15.8546 -0.221349 14.2635 0.664108C13.1002 1.31132 11.4755 1.31122 10.3124 0.664001C8.72132 -0.22135 6.49874 -0.221349 4.90751 0.664109Z" fill="#C9CCEF"/>
</svg>
