<svg width="19" height="20" viewBox="0 0 19 20" fill="none" xmlns="http://www.w3.org/2000/svg">
<rect x="2.18164" width="24" height="3" transform="rotate(46.661 2.18164 0)" fill="white"/>
<rect width="24" height="3" transform="matrix(-0.686313 0.727306 0.727306 0.686313 16.4712 0)" fill="white"/>
</svg>
