<svg width="29" height="36" viewBox="0 0 29 36" fill="none" xmlns="http://www.w3.org/2000/svg">
<path d="M2.51036e-05 12.7368C0.000969622 12.8514 0.0359532 12.963 0.100528 13.0576C0.165102 13.1522 0.25635 13.2255 0.362669 13.2681L3.24996 14.423C3.31838 14.45 3.39124 14.4639 3.46478 14.464C3.5393 14.4635 3.61304 14.4486 3.6819 14.4201L4.9679 16.6722L4.50593 16.8657C4.29657 16.9536 4.11777 17.1013 3.99189 17.2903C3.86602 17.4793 3.79865 17.7012 3.79822 17.9283C3.79779 18.1554 3.86431 18.3776 3.98947 18.567C4.11462 18.7565 4.29286 18.9049 4.50189 18.9936L5.12439 19.2558L4.04223 31.1584C4.03148 31.278 4.05833 31.3981 4.11905 31.5018C4.17977 31.6055 4.27134 31.6877 4.38098 31.7369C4.49062 31.7861 4.61288 31.7998 4.73071 31.7763C4.84855 31.7527 4.95609 31.6929 5.03835 31.6053L9.64358 26.6906L13.9237 34.9407C13.9718 35.0335 14.0441 35.1115 14.1329 35.1664C14.2218 35.2213 14.3239 35.2511 14.4284 35.2525H14.4365C14.5394 35.2525 14.6405 35.225 14.7292 35.1728C14.818 35.1206 14.8912 35.0457 14.9412 34.9557L19.532 26.6917L23.819 31.5909C23.8732 31.6527 23.94 31.7023 24.0149 31.7362C24.0898 31.7702 24.171 31.7878 24.2533 31.7878C24.3315 31.7879 24.409 31.772 24.4808 31.741C24.5932 31.6934 24.6877 31.6113 24.7506 31.5066C24.8134 31.4019 24.8415 31.28 24.8307 31.1584L23.7468 19.2523L24.613 18.8885C25.0202 18.7174 25.3678 18.4298 25.612 18.0618C25.8562 17.6937 25.9862 17.2617 25.9857 16.8201V14.3312L28.5195 13.2641C28.6253 13.2197 28.7154 13.145 28.7785 13.0492C28.8415 12.9535 28.8747 12.8412 28.8737 12.7265C28.8727 12.6119 28.8376 12.5001 28.7729 12.4055C28.7082 12.3109 28.6168 12.2377 28.5103 12.1952L25.9857 11.1858V5.03413C25.9875 4.62997 25.8571 4.2363 25.6144 3.91312C25.3717 3.58994 25.03 3.35496 24.6413 3.24401L15.9015 0.671429C15.7543 0.626286 15.601 0.603892 15.447 0.605021C15.0261 0.605632 14.6225 0.773136 14.3248 1.07081C14.0271 1.36849 13.8596 1.77205 13.859 2.19303V8.41399L11.764 7.57552C11.6227 7.51992 11.4654 7.52137 11.3251 7.57957L0.35343 12.1992C0.247837 12.2437 0.157852 12.3185 0.0949208 12.4143C0.0319896 12.51 -0.00104291 12.6223 2.51036e-05 12.7368ZM5.34671 29.59L6.2129 20.0688L9.08345 25.6049L5.34671 29.59ZM7.63922 20.3119L12.2329 22.2459L9.92307 24.7116L7.63922 20.3119ZM14.4532 33.4543L10.4832 25.7966L13.3641 22.7217L13.5437 22.7973C13.8269 22.9153 14.1306 22.976 14.4374 22.976C14.7441 22.976 15.0478 22.9153 15.331 22.7973L15.9084 22.5531L18.7218 25.7684L14.4532 33.4543ZM17.0316 22.0784L21.9151 20.0215L19.3195 24.6931L17.0316 22.0784ZM20.1273 25.6171L22.738 20.9183L23.517 29.4907L20.1273 25.6171ZM17.3174 16.7242L15.9564 16.1797L25.414 12.201L26.775 12.7455L17.3174 16.7242ZM15.0139 2.19303C15.0155 2.12643 15.0321 2.06105 15.0626 2.00179C15.093 1.94253 15.1365 1.89093 15.1897 1.85087C15.2429 1.81081 15.3045 1.78332 15.3699 1.77047C15.4353 1.75763 15.5027 1.75975 15.5672 1.77668L24.3168 4.35273C24.4651 4.39468 24.5956 4.48398 24.6883 4.60701C24.7811 4.73004 24.8311 4.88003 24.8307 5.03413V11.1933L14.2124 15.664C14.1067 15.7083 14.0166 15.7831 13.9535 15.8788C13.8904 15.9746 13.8573 16.0869 13.8583 16.2015C13.8593 16.3162 13.8943 16.4279 13.9591 16.5225C14.0238 16.6172 14.1152 16.6904 14.2217 16.7329L15.5215 17.2526L13.9745 19.3147L14.8985 20.0076L16.6308 17.6978L16.6262 17.6943L17.109 17.8878C17.1774 17.9147 17.2502 17.9286 17.3238 17.9288C17.4007 17.9288 17.4769 17.9135 17.5478 17.8837L24.8307 14.8174V16.8201C24.8307 17.0346 24.7672 17.2443 24.6483 17.4228C24.5295 17.6014 24.3605 17.7408 24.1626 17.8237L14.8834 21.7325C14.5976 21.8509 14.2765 21.8509 13.9907 21.7325L4.9552 17.9288L5.54536 17.6805L5.85083 18.2152L6.8533 17.6424L6.61712 17.2289L14.6605 13.8415C14.7653 13.7974 14.8547 13.7234 14.9176 13.6287C14.9805 13.5339 15.014 13.4228 15.0139 13.3091V2.19303ZM13.859 12.9257L6.04024 16.2172L4.75482 13.9686L13.859 10.1366V12.9257ZM11.555 8.73621L12.916 9.28076L3.459 13.2652L2.09793 12.7207L11.555 8.73621Z" fill="white"/>
</svg>
