<svg width="15" height="20" viewBox="0 0 15 20" fill="none" xmlns="http://www.w3.org/2000/svg">
<path d="M12.701 2.05161C11.312 0.728674 9.46496 0 7.50061 0C5.53587 0 3.68926 0.728674 2.30018 2.05161C-0.27051 4.49952 -0.589976 9.10532 1.60832 11.8958L7.50061 20L13.3841 11.9072C15.5912 9.10532 15.2717 4.49952 12.701 2.05161ZM7.56849 9.4965C6.08851 9.4965 4.8839 8.34925 4.8839 6.93975C4.8839 5.53025 6.08851 4.383 7.56849 4.383C9.04846 4.383 10.2531 5.53025 10.2531 6.93975C10.2531 8.34925 9.04846 9.4965 7.56849 9.4965Z" fill="#22297A"/>
</svg>
