<svg width="31" height="31" viewBox="0 0 31 31" fill="none" xmlns="http://www.w3.org/2000/svg">
<circle cx="15.5" cy="15.5" r="15.5" fill="#AFCF39"/>
<path d="M15.4982 20.2242L18.0006 15.8772L19.0379 18.8212H18.1984V20.1161H23.194V18.8212H22.2395L18.6538 9.38428L15.4982 15.1941L12.3449 9.38428L8.75689 18.8212H7.80469V20.1161H12.798V18.8212H11.9608L12.9981 15.8772L15.4982 20.2242Z" fill="white"/>
</svg>
