<svg width="25" height="32" viewBox="0 0 25 32" fill="none" xmlns="http://www.w3.org/2000/svg">
<path d="M2.80854 31.3815C2.80854 31.7231 3.1181 32 3.49991 32C3.88172 32 4.19129 31.7231 4.19129 31.3815L4.19129 11.4071C6.00286 9.4769 7 7.03982 7 4.51414L7 2.2139C7 0.993122 5.88982 -2.28001e-05 4.52522 -2.26918e-05L2.47478 -2.25291e-05C1.11018 -2.24208e-05 8.28389e-07 0.993123 9.45964e-07 2.2139L1.1675e-06 4.51414C1.41074e-06 7.03966 0.997138 9.47674 2.80871 11.4071L2.80854 31.3815ZM1.38258 4.51414L1.38258 2.2139C1.38258 1.67518 1.87242 1.23698 2.4746 1.23698L4.52522 1.23698C5.12741 1.23698 5.61725 1.67518 5.61725 2.2139L5.61725 4.51414C5.61725 6.19416 5.11946 7.83043 4.19129 9.2649L4.19129 4.99719C4.19129 4.65562 3.88173 4.37868 3.49991 4.37868C3.1181 4.37868 2.80854 4.65562 2.80854 4.99719L2.80854 9.2649C1.88054 7.83043 1.38258 6.19416 1.38258 4.51414Z" fill="#22297A"/>
<path d="M11.8086 31.3815C11.8086 31.7231 12.1182 32 12.5 32C12.8818 32 13.1914 31.7231 13.1914 31.3815L13.1913 11.407C15.0029 9.47681 16 7.03973 16 4.51405L16 2.21382C16 0.993042 14.8898 -7.62058e-05 13.5252 -7.60976e-05L11.4748 -7.59348e-05C10.1102 -7.58266e-05 9 0.993043 9 2.21382L9 4.51405C9 7.03958 9.99714 9.47666 11.8087 11.407L11.8086 31.3815ZM10.3826 4.51405L10.3826 2.21382C10.3826 1.6751 10.8724 1.2369 11.4746 1.2369L13.5252 1.2369C14.1274 1.2369 14.6172 1.6751 14.6172 2.21382L14.6172 4.51405C14.6172 6.19408 14.1195 7.83034 13.1913 9.26482L13.1913 4.9971C13.1913 4.65553 12.8817 4.3786 12.4999 4.3786C12.1181 4.3786 11.8085 4.65553 11.8085 4.9971L11.8085 9.26482C10.8805 7.83034 10.3826 6.19408 10.3826 4.51405Z" fill="#22297A"/>
<path d="M20.8085 31.3815C20.8085 31.7231 21.1181 32 21.4999 32C21.8817 32 22.1913 31.7231 22.1913 31.3815L22.1913 11.407C24.0029 9.47681 25 7.03973 25 4.51405L25 2.21382C25 0.993036 23.8898 -8.00205e-05 22.5252 -7.99123e-05L20.4748 -7.97495e-05C19.1102 -7.96413e-05 18 0.993037 18 2.21382L18 4.51405C18 7.03958 18.9971 9.47666 20.8087 11.407L20.8085 31.3815ZM19.3826 4.51405L19.3826 2.21382C19.3826 1.6751 19.8724 1.23689 20.4746 1.23689L22.5252 1.23689C23.1274 1.23689 23.6172 1.6751 23.6172 2.21382L23.6172 4.51405C23.6172 6.19408 23.1195 7.83034 22.1913 9.26482L22.1913 4.9971C22.1913 4.65553 21.8817 4.3786 21.4999 4.3786C21.1181 4.3786 20.8085 4.65553 20.8085 4.9971L20.8085 9.26482C19.8805 7.83034 19.3826 6.19408 19.3826 4.51405Z" fill="#22297A"/>
</svg>
