<svg width="20" height="22" viewBox="0 0 20 22" fill="none" xmlns="http://www.w3.org/2000/svg">
<path d="M13.7989 14.2734C16.7563 11.0364 16.5268 6.01434 13.2898 3.05703C10.0528 0.0997196 5.03073 0.329137 2.07656 3.56615C-0.880749 6.80317 -0.651331 11.8253 2.58568 14.7826C5.40786 17.3627 9.6694 17.5607 12.721 15.2571L18.6985 21.2377C18.8336 21.376 19.0159 21.4546 19.2076 21.4577C19.3993 21.4577 19.5847 21.3792 19.7167 21.2377C19.9964 20.9517 19.9964 20.4929 19.7167 20.2069L13.7989 14.2734ZM1.31917 8.81765C1.31917 5.18151 4.26704 2.23049 7.90632 2.23049C11.5456 2.23049 14.4935 5.17837 14.4935 8.81765C14.4935 12.4538 11.5456 15.4048 7.90632 15.4048C4.26704 15.3985 1.32231 12.4538 1.31917 8.81765Z" fill="#F5FAFF"/>
</svg>
